…
Creating a dataset of specific variables

This time we will make a dataset which includes only variables of your choice. Suppose that we want to make a dataset which includes only variables measuring attitudes toward working mom in the 2012 AuSSa. The following code will do this job.

aus2012.working.mom <- aus2012 %>%
  select("fechld", "fepresch", "famsuffr", "homekid", "housewrk")
aus2012.working.mom

## # A tibble: 1,612 x 5
##    fechld fepresch famsuffr homekid housewrk
##     <dbl>    <dbl>    <dbl>   <dbl>    <dbl>
##  1      5        1        3       3        3
##  2      1        5        5       5        1
##  3      2        4        2       5        2
##  4      2        4        4       2        3
##  5      1        4        4       4        4
##  6     NA       NA       NA      NA       NA
##  7      2        4        4       4        2
##  8      4        3        2       5        4
##  9      2        4        4       4        4
## 10      2        3        2       5        1
## # ... with 1,602 more rows
…
